[
{
    "model": "accounts.plan",
    "pk": 1,
    "fields": {
        "name": "Basic",
        "image_sizes": "[\"200\"]",
        "has_original_image": false,
        "expiring_links": false
    }
},
{
    "model": "accounts.plan",
    "pk": 2,
    "fields": {
        "name": "Premium",
        "image_sizes": "[\"200\", \"400\"]",
        "has_original_image": true,
        "expiring_links": false
    }
},
{
    "model": "accounts.plan",
    "pk": 3,
    "fields": {
        "name": "Enterprise",
        "image_sizes": "[\"200\", \"400\"]",
        "has_original_image": true,
        "expiring_links": true
    }
}
]
