[
{
    "model": "accounts.user",
    "pk": 1,
    "fields": {
        "password": "pbkdf2_sha256$260000$FcUS9RrXJO0diue3aNK6F0$ZQCfSc5+TJLcnGpU3P5MIpkxZvYpM7BcFvaVJho43D8=",
        "last_login": "2021-11-08T10:22:41.096Z",
        "is_superuser": true,
        "first_name": "",
        "last_name": "",
        "email": "shams@gmail.com",
        "account_plan": null,
        "is_active": true,
        "created_at": "2021-11-05T16:39:27.105Z",
        "updated_at": "2021-11-08T10:26:15.855Z",
        "is_staff": true,
        "groups": [],
        "user_permissions": []
    }
},
{
    "model": "accounts.user",
    "pk": 2,
    "fields": {
        "password": "pbkdf2_sha256$260000$vfvFa7nRDbR38XO95iz32H$RlFr6ajpq8Vxu0s/JkRdxNYIcvs66SB0tnHwuZTzG/w=",
        "last_login": "2021-11-08T09:50:14.931Z",
        "is_superuser": false,
        "first_name": "Jon",
        "last_name": "Brown",
        "email": "brown@gmail.com",
        "account_plan": 3,
        "is_active": true,
        "created_at": "2021-11-05T17:57:05.094Z",
        "updated_at": "2021-11-07T14:32:01.633Z",
        "is_staff": false,
        "groups": [],
        "user_permissions": []
    }
}
]
